[gd_scene load_steps=3 format=2]

[sub_resource type="RectangleShape2D" id=1]
extents = Vector2( 512, 10 )

[sub_resource type="RectangleShape2D" id=2]
extents = Vector2( 10, 300 )

[node name="Walls" type="StaticBody2D"]
editor/display_folded = true
position = Vector2( 512, 300 )

[node name="CollisionShape2D" type="CollisionShape2D" parent="."]
position = Vector2( 0, -312 )
shape = SubResource( 1 )

[node name="CollisionShape2D1" type="CollisionShape2D" parent="."]
position = Vector2( 0, 312 )
shape = SubResource( 1 )

[node name="CollisionShape2D2" type="CollisionShape2D" parent="."]
position = Vector2( 524, 0 )
shape = SubResource( 2 )

[node name="CollisionShape2D3" type="CollisionShape2D" parent="."]
position = Vector2( -524, 0 )
shape = SubResource( 2 )

