[gd_scene load_steps=4 format=2]

[ext_resource path="res://objects/sword/sword.gd" type="Script" id=1]
[ext_resource path="res://objects/sword/sword.wav" type="AudioStream" id=2]

[sub_resource type="ConvexPolygonShape2D" id=1]
points = PoolVector2Array( -15, -15, 15, -15, 0, 15 )

[node name="sword" type="Area2D" groups=[
"sword",
]]
script = ExtResource( 1 )

[node name="CollisionShape2D" type="CollisionShape2D" parent="."]
shape = SubResource( 1 )

[node name="Timer" type="Timer" parent="."]
wait_time = 0.1
one_shot = true
autostart = true

[node name="Sound" type="AudioStreamPlayer2D" parent="."]
stream = ExtResource( 2 )
volume_db = -13.82
[connection signal="body_entered" from="." to="." method="_on_sword_body_entered"]
