<?xml version="1.0" encoding="UTF-8" standalone="no"?>
<!-- Created with Inkscape (http://www.inkscape.org/) -->

<svg
   xmlns:dc="http://purl.org/dc/elements/1.1/"
   xmlns:cc="http://creativecommons.org/ns#"
   xmlns:rdf="http://www.w3.org/1999/02/22-rdf-syntax-ns#"
   xmlns:svg="http://www.w3.org/2000/svg"
   xmlns="http://www.w3.org/2000/svg"
   xmlns:sodipodi="http://sodipodi.sourceforge.net/DTD/sodipodi-0.dtd"
   xmlns:inkscape="http://www.inkscape.org/namespaces/inkscape"
   width="142.28082mm"
   height="192.89833mm"
   viewBox="0 0 142.28082 192.89833"
   version="1.1"
   id="svg8"
   inkscape:version="0.92.1 r15371"
   sodipodi:docname="logo.svg"
   inkscape:export-filename="/home/johannesg/bitmap.png"
   inkscape:export-xdpi="299"
   inkscape:export-ydpi="299">
  <defs
     id="defs2">
    <inkscape:perspective
       sodipodi:type="inkscape:persp3d"
       inkscape:vp_x="0 : 148.49999 : 1"
       inkscape:vp_y="0 : 999.99995 : 0"
       inkscape:vp_z="210.00001 : 148.49999 : 1"
       inkscape:persp3d-origin="105 : 98.999995 : 1"
       id="perspective4761" />
  </defs>
  <sodipodi:namedview
     id="base"
     pagecolor="#ffffff"
     bordercolor="#666666"
     borderopacity="1.0"
     inkscape:pageopacity="0.0"
     inkscape:pageshadow="2"
     inkscape:zoom="0.6008789"
     inkscape:cx="-411.23932"
     inkscape:cy="91.311892"
     inkscape:document-units="mm"
     inkscape:current-layer="g5474"
     showgrid="false"
     showguides="true"
     inkscape:guide-bbox="true"
     inkscape:window-width="1920"
     inkscape:window-height="1029"
     inkscape:window-x="1024"
     inkscape:window-y="27"
     inkscape:window-maximized="1"
     fit-margin-top="10"
     fit-margin-left="10"
     fit-margin-right="10"
     fit-margin-bottom="10" />
  <metadata
     id="metadata5">
    <rdf:RDF>
      <cc:Work
         rdf:about="">
        <dc:format>image/svg+xml</dc:format>
        <dc:type
           rdf:resource="http://purl.org/dc/dcmitype/StillImage" />
        <dc:title></dc:title>
      </cc:Work>
    </rdf:RDF>
  </metadata>
  <g
     inkscape:label="Layer 1"
     inkscape:groupmode="layer"
     id="layer1"
     transform="translate(-31.370609,-64.128258)">
    <g
       aria-label="VEGG"
       transform="matrix(0.26458333,0,0,0.26458333,-14.287502,26.458334)"
       style="font-style:normal;font-weight:normal;font-size:40px;line-height:125%;font-family:sans-serif;letter-spacing:0px;word-spacing:0px;fill:#fc4730;fill-opacity:1;stroke:none;stroke-width:1px;stroke-linecap:butt;stroke-linejoin:miter;stroke-opacity:1"
       id="flowRoot4698">
      <g
         id="g5474">
        <g
           id="g4719"
           style=""
           transform="matrix(3.7795276,0,0,3.7795276,54.000009,-100.00001)">
          <g
             id="g4736">
            <circle
               r="53.833229"
               cy="127.96149"
               cx="103.06316"
               id="path4541"
               style="color:#000000;clip-rule:nonzero;display:inline;overflow:visible;visibility:visible;opacity:1;isolation:auto;mix-blend-mode:normal;color-interpolation:sRGB;color-interpolation-filters:linearRGB;solid-color:#000000;solid-opacity:1;fill:#fc4730;fill-opacity:1;fill-rule:nonzero;stroke:none;stroke-width:0.01850422;stroke-linecap:butt;stroke-linejoin:miter;stroke-miterlimit:4;stroke-dasharray:none;stroke-dashoffset:0;stroke-opacity:1;color-rendering:auto;image-rendering:auto;shape-rendering:auto;text-rendering:auto;enable-background:accumulate" />
            <g
               transform="matrix(1.2497081,0,0,1.2497081,-26.259131,-37.75799)"
               id="g4653">
              <rect
                 y="114.73292"
                 x="-3.7528112"
                 height="12.967257"
                 width="4.8051076"
                 id="rect4619"
                 style="color:#000000;clip-rule:nonzero;display:inline;overflow:visible;visibility:visible;opacity:1;isolation:auto;mix-blend-mode:normal;color-interpolation:sRGB;color-interpolation-filters:linearRGB;solid-color:#000000;solid-opacity:1;fill:#f2b80a;fill-opacity:1;fill-rule:nonzero;stroke:none;stroke-width:0.05221289;stroke-linecap:butt;stroke-linejoin:miter;stroke-miterlimit:4;stroke-dasharray:none;stroke-dashoffset:0;stroke-opacity:1;color-rendering:auto;image-rendering:auto;shape-rendering:auto;text-rendering:auto;enable-background:accumulate"
                 transform="rotate(-30)" />
              <rect
                 style="color:#000000;clip-rule:nonzero;display:inline;overflow:visible;visibility:visible;opacity:1;isolation:auto;mix-blend-mode:normal;color-interpolation:sRGB;color-interpolation-filters:linearRGB;solid-color:#000000;solid-opacity:1;fill:#f2b80a;fill-opacity:1;fill-rule:nonzero;stroke:none;stroke-width:0.05221289;stroke-linecap:butt;stroke-linejoin:miter;stroke-miterlimit:4;stroke-dasharray:none;stroke-dashoffset:0;stroke-opacity:1;color-rendering:auto;image-rendering:auto;shape-rendering:auto;text-rendering:auto;enable-background:accumulate"
                 id="rect4621"
                 width="4.8051076"
                 height="12.967257"
                 x="-3.7528112"
                 y="135.12076"
                 transform="rotate(-30)" />
              <rect
                 style="color:#000000;clip-rule:nonzero;display:inline;overflow:visible;visibility:visible;opacity:1;isolation:auto;mix-blend-mode:normal;color-interpolation:sRGB;color-interpolation-filters:linearRGB;solid-color:#000000;solid-opacity:1;fill:#f2b80a;fill-opacity:1;fill-rule:nonzero;stroke:none;stroke-width:0.05221289;stroke-linecap:butt;stroke-linejoin:miter;stroke-miterlimit:4;stroke-dasharray:none;stroke-dashoffset:0;stroke-opacity:1;color-rendering:auto;image-rendering:auto;shape-rendering:auto;text-rendering:auto;enable-background:accumulate"
                 id="rect4623"
                 width="4.8051076"
                 height="12.967257"
                 x="-3.7528112"
                 y="155.5085"
                 transform="rotate(-30)" />
              <rect
                 y="175.89632"
                 x="-3.7528112"
                 height="12.967257"
                 width="4.8051076"
                 id="rect4625"
                 style="color:#000000;clip-rule:nonzero;display:inline;overflow:visible;visibility:visible;opacity:1;isolation:auto;mix-blend-mode:normal;color-interpolation:sRGB;color-interpolation-filters:linearRGB;solid-color:#000000;solid-opacity:1;fill:#f2b80a;fill-opacity:1;fill-rule:nonzero;stroke:none;stroke-width:0.05221289;stroke-linecap:butt;stroke-linejoin:miter;stroke-miterlimit:4;stroke-dasharray:none;stroke-dashoffset:0;stroke-opacity:1;color-rendering:auto;image-rendering:auto;shape-rendering:auto;text-rendering:auto;enable-background:accumulate"
                 transform="rotate(-30)" />
            </g>
            <g
               transform="matrix(1.2497081,0,0,1.2497081,-26.259131,-37.75799)"
               id="g4647">
              <rect
                 transform="rotate(30)"
                 style="color:#000000;clip-rule:nonzero;display:inline;overflow:visible;visibility:visible;opacity:1;isolation:auto;mix-blend-mode:normal;color-interpolation:sRGB;color-interpolation-filters:linearRGB;solid-color:#000000;solid-opacity:1;fill:#f2b80a;fill-opacity:1;fill-rule:nonzero;stroke:none;stroke-width:0.05221289;stroke-linecap:butt;stroke-linejoin:miter;stroke-miterlimit:4;stroke-dasharray:none;stroke-dashoffset:0;stroke-opacity:1;color-rendering:auto;image-rendering:auto;shape-rendering:auto;text-rendering:auto;enable-background:accumulate"
                 id="rect4627"
                 width="4.8051076"
                 height="12.967257"
                 x="177.41855"
                 y="11.692763" />
              <rect
                 transform="rotate(30)"
                 y="32.080555"
                 x="177.41855"
                 height="12.967257"
                 width="4.8051076"
                 id="rect4629"
                 style="color:#000000;clip-rule:nonzero;display:inline;overflow:visible;visibility:visible;opacity:1;isolation:auto;mix-blend-mode:normal;color-interpolation:sRGB;color-interpolation-filters:linearRGB;solid-color:#000000;solid-opacity:1;fill:#f2b80a;fill-opacity:1;fill-rule:nonzero;stroke:none;stroke-width:0.05221289;stroke-linecap:butt;stroke-linejoin:miter;stroke-miterlimit:4;stroke-dasharray:none;stroke-dashoffset:0;stroke-opacity:1;color-rendering:auto;image-rendering:auto;shape-rendering:auto;text-rendering:auto;enable-background:accumulate" />
              <rect
                 transform="rotate(30)"
                 y="52.468292"
                 x="177.41855"
                 height="12.967257"
                 width="4.8051076"
                 id="rect4631"
                 style="color:#000000;clip-rule:nonzero;display:inline;overflow:visible;visibility:visible;opacity:1;isolation:auto;mix-blend-mode:normal;color-interpolation:sRGB;color-interpolation-filters:linearRGB;solid-color:#000000;solid-opacity:1;fill:#f2b80a;fill-opacity:1;fill-rule:nonzero;stroke:none;stroke-width:0.05221289;stroke-linecap:butt;stroke-linejoin:miter;stroke-miterlimit:4;stroke-dasharray:none;stroke-dashoffset:0;stroke-opacity:1;color-rendering:auto;image-rendering:auto;shape-rendering:auto;text-rendering:auto;enable-background:accumulate" />
              <rect
                 transform="rotate(30)"
                 style="color:#000000;clip-rule:nonzero;display:inline;overflow:visible;visibility:visible;opacity:1;isolation:auto;mix-blend-mode:normal;color-interpolation:sRGB;color-interpolation-filters:linearRGB;solid-color:#000000;solid-opacity:1;fill:#f2b80a;fill-opacity:1;fill-rule:nonzero;stroke:none;stroke-width:0.05221289;stroke-linecap:butt;stroke-linejoin:miter;stroke-miterlimit:4;stroke-dasharray:none;stroke-dashoffset:0;stroke-opacity:1;color-rendering:auto;image-rendering:auto;shape-rendering:auto;text-rendering:auto;enable-background:accumulate"
                 id="rect4633"
                 width="4.8051076"
                 height="12.967257"
                 x="177.41855"
                 y="72.856102" />
            </g>
            <path
               id="path4635"
               style="color:#000000;clip-rule:nonzero;display:inline;overflow:visible;visibility:visible;opacity:1;isolation:auto;mix-blend-mode:normal;color-interpolation:sRGB;color-interpolation-filters:linearRGB;solid-color:#000000;solid-opacity:1;fill:#54bfb8;fill-opacity:1;fill-rule:nonzero;stroke:none;stroke-width:0.2093035;stroke-linecap:butt;stroke-linejoin:miter;stroke-miterlimit:4;stroke-dasharray:none;stroke-dashoffset:0;stroke-opacity:1;color-rendering:auto;image-rendering:auto;shape-rendering:auto;text-rendering:auto;enable-background:accumulate"
               d="m 80.80781,118.55193 h 44.10662 l -22.07374,44.10332 z"
               inkscape:connector-curvature="0"
               sodipodi:nodetypes="cccc" />
            <rect
               style="color:#000000;clip-rule:nonzero;display:inline;overflow:visible;visibility:visible;opacity:1;isolation:auto;mix-blend-mode:normal;color-interpolation:sRGB;color-interpolation-filters:linearRGB;solid-color:#000000;solid-opacity:1;fill:#ffffff;fill-opacity:1;fill-rule:nonzero;stroke:none;stroke-width:0.21687688;stroke-linecap:butt;stroke-linejoin:miter;stroke-miterlimit:4;stroke-dasharray:none;stroke-dashoffset:0;stroke-opacity:1;color-rendering:auto;image-rendering:auto;shape-rendering:auto;text-rendering:auto;enable-background:accumulate"
               id="rect4637"
               width="44.158051"
               height="9.4883471"
               x="80.756233"
               y="97.591698" />
          </g>
        </g>
        <path
           inkscape:connector-curvature="0"
           id="path5374"
           style="font-style:normal;font-variant:normal;font-weight:900;font-stretch:normal;font-size:192px;font-family:Pincoyablack;-inkscape-font-specification:'Pincoyablack Heavy';text-align:center;text-anchor:middle;fill:#fc4730;fill-opacity:1"
           d="m 266.46484,654.3158 c 0,0 0,110.016 0,126.144 0,8.448 4.032,13.632 13.248,13.632 h 59.136 c 9.216,0 13.248,-5.184 13.248,-13.632 0,-16.128 -0.384,-126.144 -0.384,-126.144 h -26.688 c -9.984,0 -13.632,5.184 -13.632,13.824 l 0.384,88.128 c 0,1.92 -0.96,2.688 -2.496,2.688 -1.728,0 -2.496,-0.768 -2.496,-2.688 l -0.192,-87.552 c 0,-7.68 -3.84,-14.4 -11.904,-14.4 z" />
        <path
           inkscape:connector-curvature="0"
           id="path5376"
           style="font-style:normal;font-variant:normal;font-weight:900;font-stretch:normal;font-size:192px;font-family:Pincoyablack;-inkscape-font-specification:'Pincoyablack Heavy';text-align:center;text-anchor:middle;fill:#fc4730;fill-opacity:1"
           d="m 396.40984,692.3318 c 0,-1.152 0.768,-2.688 2.496,-2.688 1.728,0 2.496,1.536 2.496,2.688 v 24.384 c 0,2.112 -0.768,2.688 -2.496,2.688 h -2.496 z m -27.072,-38.016 c -9.216,0 -13.248,5.184 -13.248,13.632 v 112.512 c 0,8.448 4.032,13.632 13.248,13.632 h 72.384 v -35.136 h -41.856 c -2.496,0 -3.456,-0.768 -3.456,-3.456 v -0.96 h 31.68 c 8.448,0 13.632,-4.032 13.632,-13.44 v -72.96 c 0,-8.64 -4.032,-13.824 -13.248,-13.824 z" />
        <path
           inkscape:connector-curvature="0"
           id="path5378"
           style="font-style:normal;font-variant:normal;font-weight:900;font-stretch:normal;font-size:192px;font-family:Pincoyablack;-inkscape-font-specification:'Pincoyablack Heavy';text-align:center;text-anchor:middle;fill:#fc4730;fill-opacity:1"
           d="m 445.71484,667.9478 v 112.512 c 0,8.448 4.032,13.632 13.248,13.632 h 32.064 v 4.224 h -45.312 v 35.328 h 72.384 c 9.216,0 13.248,-5.184 13.248,-13.632 v -165.696 h -72.384 c -9.216,0 -13.248,5.184 -13.248,13.632 z m 40.32,89.088 v -65.472 c 0.192,-1.344 0.768,-1.728 1.92,-1.92 h 3.072 v 69.312 h -2.304 c -1.728,0 -2.496,-0.384 -2.688,-1.92 z" />
        <path
           inkscape:connector-curvature="0"
           id="path5380"
           style="font-style:normal;font-variant:normal;font-weight:900;font-stretch:normal;font-size:192px;font-family:Pincoyablack;-inkscape-font-specification:'Pincoyablack Heavy';text-align:center;text-anchor:middle;fill:#fc4730;fill-opacity:1"
           d="m 535.33984,667.9478 v 112.512 c 0,8.448 4.032,13.632 13.248,13.632 h 32.064 v 4.224 h -45.312 v 35.328 h 72.384 c 9.216,0 13.248,-5.184 13.248,-13.632 v -165.696 h -72.384 c -9.216,0 -13.248,5.184 -13.248,13.632 z m 40.32,89.088 v -65.472 c 0.192,-1.344 0.768,-1.728 1.92,-1.92 h 3.072 v 69.312 h -2.304 c -1.728,0 -2.496,-0.384 -2.688,-1.92 z" />
      </g>
    </g>
  </g>
</svg>
